{
    "page": 1,
    "perPage": 30,
    "totalItems": 36,
    "totalPages": 2,
    "items": [
        {
            "category": "5tjxa4w34yxaus5",
            "collectionId": "ofdafq9hi5qkt1n",
            "collectionName": "Item",
            "created": "2024-02-16 08:18:03.321Z",
            "id": "6ti37rgs33jsqrr",
            "image": "bag_of_ice_DZ0GLy6JWf.png",
            "name": "Bag of Ice",
            "updated": "2024-02-16 08:22:28.819Z"
        },
        {
            "category": "5tjxa4w34yxaus5",
            "collectionId": "ofdafq9hi5qkt1n",
            "collectionName": "Item",
            "created": "2024-02-16 08:22:23.484Z",
            "id": "k7esha66h3lrszw",
            "image": "bagger_nrf2CUayHw.jpg",
            "name": "Bagger",
            "updated": "2024-02-16 08:22:23.484Z"
        },
        {
            "category": "j8g1059kjrsraal",
            "collectionId": "ofdafq9hi5qkt1n",
            "collectionName": "Item",
            "created": "2024-02-16 08:24:45.995Z",
            "id": "1qsx2m1y7fm3j67",
            "image": "beverage_uWxJfaihEH.png",
            "name": "Drink",
            "updated": "2024-02-16 08:24:45.995Z"
        },
        {
            "category": "5tjxa4w34yxaus5",
            "collectionId": "ofdafq9hi5qkt1n",
            "collectionName": "Item",
            "created": "2024-02-16 08:24:58.679Z",
            "id": "oa1oeq1wsap0paa",
            "image": "big_order_BPVgsHRTxF.png",
            "name": "Big Order",
            "updated": "2024-02-16 08:24:58.679Z"
        },
        {
            "category": "a64383oecy4iudy",
            "collectionId": "ofdafq9hi5qkt1n",
            "collectionName": "Item",
            "created": "2024-02-16 08:25:27.896Z",
            "id": "bvne0ws6v7eaw6j",
            "image": "biscuit_2tWfVlPrQu.png",
            "name": "Biscuit",
            "updated": "2024-02-16 08:25:27.896Z"
        },
        {
            "category": "a64383oecy4iudy",
            "collectionId": "ofdafq9hi5qkt1n",
            "collectionName": "Item",
            "created": "2024-02-16 08:25:40.481Z",
            "id": "6786v6hkdeeg64h",
            "image": "burrito_duehFJuZtt.png",
            "name": "Burrito",
            "updated": "2024-02-16 08:25:40.481Z"
        },
        {
            "category": "5tjxa4w34yxaus5",
            "collectionId": "ofdafq9hi5qkt1n",
            "collectionName": "Item",
            "created": "2024-02-16 08:25:51.754Z",
            "id": "ndixot2ifa6l115",
            "image": "cash_cart_YmeXphzL4p.jpg",
            "name": "Cash Cart",
            "updated": "2024-02-16 08:25:51.754Z"
        },
        {
            "category": "a64383oecy4iudy",
            "collectionId": "ofdafq9hi5qkt1n",
            "collectionName": "Item",
            "created": "2024-02-16 08:26:05.576Z",
            "id": "l4uugwb92ywngkt",
            "image": "chicken_minis_xLBsLiRjig.png",
            "name": "Chicken Minis",
            "updated": "2024-02-16 08:26:05.576Z"
        },
        {
            "category": "j8g1059kjrsraal",
            "collectionId": "ofdafq9hi5qkt1n",
            "collectionName": "Item",
            "created": "2024-02-16 08:26:30.738Z",
            "id": "ytsgszrzsr4jjtm",
            "image": "chicken_sandwich_gkGBHqLc8J.png",
            "name": "Chicken Sandwich",
            "updated": "2024-02-16 08:26:30.738Z"
        },
        {
            "category": "j8g1059kjrsraal",
            "collectionId": "ofdafq9hi5qkt1n",
            "collectionName": "Item",
            "created": "2024-02-16 08:27:12.464Z",
            "id": "i6cpidquhtiwblo",
            "image": "chicken_strips_jaGKh9J907.png",
            "name": "Chicken Strips",
            "updated": "2024-02-16 08:27:12.464Z"
        },
        {
            "category": "j8g1059kjrsraal",
            "collectionId": "ofdafq9hi5qkt1n",
            "collectionName": "Item",
            "created": "2024-02-16 08:27:30.375Z",
            "id": "cgltwqrhfeaumf6",
            "image": "desserts_3179epZ9aI.png",
            "name": "Desserts",
            "updated": "2024-02-16 08:27:30.375Z"
        },
        {
            "category": "j8g1059kjrsraal",
            "collectionId": "ofdafq9hi5qkt1n",
            "collectionName": "Item",
            "created": "2024-02-16 08:30:07.788Z",
            "id": "5vnjdssgiir0ux1",
            "image": "filet_pcDIn7mMkr.png",
            "name": "Filet",
            "updated": "2024-02-16 08:30:07.788Z"
        },
        {
            "category": "j8g1059kjrsraal",
            "collectionId": "ofdafq9hi5qkt1n",
            "collectionName": "Item",
            "created": "2024-02-16 08:30:42.051Z",
            "id": "jbdac413yrt3l7d",
            "image": "frosted_beverages_oFCUhY2o42.png",
            "name": "Frosted Beverages",
            "updated": "2024-02-16 08:30:42.051Z"
        },
        {
            "category": "j8g1059kjrsraal",
            "collectionId": "ofdafq9hi5qkt1n",
            "collectionName": "Item",
            "created": "2024-02-16 08:30:55.844Z",
            "id": "oalvbb38t651bqr",
            "image": "fruit_jwKRKz3UCD.png",
            "name": "Fruit",
            "updated": "2024-02-16 08:30:55.844Z"
        },
        {
            "category": "j8g1059kjrsraal",
            "collectionId": "ofdafq9hi5qkt1n",
            "collectionName": "Item",
            "created": "2024-02-16 08:31:07.499Z",
            "id": "bzz0wqtxjro1x6u",
            "image": "gallon_beverage_33eh0joDMt.png",
            "name": "Lunch",
            "updated": "2024-02-16 08:31:07.499Z"
        },
        {
            "category": "j8g1059kjrsraal",
            "collectionId": "ofdafq9hi5qkt1n",
            "collectionName": "Item",
            "created": "2024-02-16 08:31:36.206Z",
            "id": "po6nk89q2ryako3",
            "image": "grilled_nuggets_JwA2ge3wnu.png",
            "name": "Grilled Nuggets",
            "updated": "2024-02-16 08:31:36.206Z"
        },
        {
            "category": "5tjxa4w34yxaus5",
            "collectionId": "ofdafq9hi5qkt1n",
            "collectionName": "Item",
            "created": "2024-02-16 08:31:47.735Z",
            "id": "nq2rhtdr4ckk46g",
            "image": "guest_complaint_Gq2px0qgw3.png",
            "name": "Guest Complaint",
            "updated": "2024-02-16 08:31:47.735Z"
        },
        {
            "category": "5tjxa4w34yxaus5",
            "collectionId": "ofdafq9hi5qkt1n",
            "collectionName": "Item",
            "created": "2024-02-16 08:31:59.401Z",
            "id": "lf6ew3lq2f40vmj",
            "image": "guest_question_rMXGB81Cd2.png",
            "name": "Guest Question",
            "updated": "2024-02-16 08:31:59.401Z"
        },
        {
            "category": "a64383oecy4iudy",
            "collectionId": "ofdafq9hi5qkt1n",
            "collectionName": "Item",
            "created": "2024-02-16 08:32:11.643Z",
            "id": "db5q9f9q3glpn7e",
            "image": "hash_browns_hcTcO75oUz.png",
            "name": "Hash Browns",
            "updated": "2024-02-16 08:32:11.643Z"
        },
        {
            "category": "a64383oecy4iudy",
            "collectionId": "ofdafq9hi5qkt1n",
            "collectionName": "Item",
            "created": "2024-02-16 08:34:57.183Z",
            "id": "wih8flp21u07ru9",
            "image": "hot_coffee_XVbX0ZrMMd.jpg",
            "name": "Coffee",
            "updated": "2024-02-16 08:34:57.183Z"
        },
        {
            "category": "a64383oecy4iudy",
            "collectionId": "ofdafq9hi5qkt1n",
            "collectionName": "Item",
            "created": "2024-02-16 08:35:28.490Z",
            "id": "v91bnr8welf6dm2",
            "image": "iced_coffee_79r9aVvWgk.png",
            "name": "Iced Coffee",
            "updated": "2024-02-16 08:35:28.490Z"
        },
        {
            "category": "j8g1059kjrsraal",
            "collectionId": "ofdafq9hi5qkt1n",
            "collectionName": "Item",
            "created": "2024-02-16 08:35:42.011Z",
            "id": "7x7lxvyy58kxyr5",
            "image": "kids_meal_n6e6VWgZKZ.png",
            "name": "Kids Meal",
            "updated": "2024-02-16 08:35:42.011Z"
        },
        {
            "category": "j8g1059kjrsraal",
            "collectionId": "ofdafq9hi5qkt1n",
            "collectionName": "Item",
            "created": "2024-02-16 08:36:08.987Z",
            "id": "fxmr62ofkebezh3",
            "image": "large_fries_77kmXqvbLz.png",
            "name": "Fries",
            "updated": "2024-02-16 08:36:08.987Z"
        },
        {
            "category": "j8g1059kjrsraal",
            "collectionId": "ofdafq9hi5qkt1n",
            "collectionName": "Item",
            "created": "2024-02-16 08:36:22.857Z",
            "id": "26i8nnm0gjqoe9a",
            "image": "lunch_items_SERiTAurhM.png",
            "name": "Lunch Items",
            "updated": "2024-02-16 08:36:22.857Z"
        },
        {
            "category": "j8g1059kjrsraal",
            "collectionId": "ofdafq9hi5qkt1n",
            "collectionName": "Item",
            "created": "2024-02-16 08:36:36.433Z",
            "id": "8vmrdn2w9qhc8zu",
            "image": "mac_and_cheese_7UaNfH464E.png",
            "name": "Mac and Cheese",
            "updated": "2024-02-16 08:36:36.433Z"
        },
        {
            "category": "a64383oecy4iudy",
            "collectionId": "ofdafq9hi5qkt1n",
            "collectionName": "Item",
            "created": "2024-02-16 08:40:37.643Z",
            "id": "xf622o2ne9wtt7w",
            "image": "mcmuffin_JF3UAhXgAT.png",
            "name": "Breakfast Muffin",
            "updated": "2024-02-16 08:40:37.643Z"
        },
        {
            "category": "j8g1059kjrsraal",
            "collectionId": "ofdafq9hi5qkt1n",
            "collectionName": "Item",
            "created": "2024-02-16 08:40:48.347Z",
            "id": "7jty77u98zmod4j",
            "image": "milkshake_zahDcAVfZF.png",
            "name": "Milkshake",
            "updated": "2024-02-16 08:40:48.347Z"
        },
        {
            "category": "j8g1059kjrsraal",
            "collectionId": "ofdafq9hi5qkt1n",
            "collectionName": "Item",
            "created": "2024-02-16 08:40:58.411Z",
            "id": "yzsanl6k5y1cawe",
            "image": "nuggets_MBvss3bIud.png",
            "name": "Nuggets",
            "updated": "2024-02-16 08:40:58.411Z"
        },
        {
            "category": "5tjxa4w34yxaus5",
            "collectionId": "ofdafq9hi5qkt1n",
            "collectionName": "Item",
            "created": "2024-02-16 08:41:37.736Z",
            "id": "zrx8x47ptuhc98v",
            "image": "out_of_stock_lowboy_Pl7liwy4tS.jpg",
            "name": "Out of Stock",
            "updated": "2024-02-16 08:41:37.736Z"
        },
        {
            "category": "5tjxa4w34yxaus5",
            "collectionId": "ofdafq9hi5qkt1n",
            "collectionName": "Item",
            "created": "2024-02-16 08:41:51.476Z",
            "id": "sw0leyee2uks3ru",
            "image": "payment_issues_8v3c8Ica0h.png",
            "name": "Payment Issues",
            "updated": "2024-02-16 08:41:51.476Z"
        }
    ]
}